title,first_name,last_name,company,email,country_code,address_line1,address_line2,locality,administrative_area,postal_code,mobile_phone_number,phone_number,fax,website,facebook,instagram,linkedin,twitter
Mr,Devin,Happer,Heartland Mill Inc,dhapper0@usa.gov,US,8582 East Plaza,2288 Rieder Plaza,Rome,CO,12332,258-595-6551,563-968-7632,332-989-9763,http://kickstarter.com,http://qq.com,http://adobe.com,http://wikimedia.org,http://sourceforge.net
Ms,Akim,Chubb,Tropical Sportswear Intl Corp,achubb1@ftc.gov,AL,25 Stephen Court,29 Golf Drive,Hong Kong,,56482,842-314-5123,666-225-1975,743-166-3632,http://printfriendly.com,http://dyndns.org,http://facebook.com,https://thetimes.co.uk,http://ebay.com
Ms,Loree,Cherry Holme,Tropical Sportswear Intl Corp,lcherryholme2@example.com,US,90289 Burning Wood Court,86876 Memorial Center,Grand Lake,NC,11536,695-544-1695,465-373-4669,732-781-4204,http://ucoz.com,http://blogtalkradio.com,https://admin.ch,https://tuttocitta.it,http://bbc.co.uk
Mr,Brooke,Ableson,E Trade Capital Markets,bableson3@ox.ac.uk,AL,07 Melrose Center,4 Chive Pass,Bhopal,,12305,309-239-9975,900-542-6762,464-518-1985,https://qq.com,http://addtoany.com,https://spiegel.de,http://xing.com,http://a8.net
Ms,Miof mela,McCracken,E Trade Capital Markets,mmccracken4@skyrock.com,BE,282 Dapin Lane,1442 Doe Crossing Drive,Ekurhuleni,,32159,772-976-5947,547-964-6613,215-910-2013,http://privacy.gov.au,https://studiopress.com,http://barnesandnoble.com,https://xinhuanet.com,https://dell.com
Ms,Misti,Dominec,Pointe Dance Academy,mdominec5@accuweather.com,BE,0876 Farmco Lane,64 Hauk Court,Madrid,,98756,272-130-8658,101-847-5126,527-513-6362,https://infoseek.co.jp,https://google.ru,http://yolasite.com,https://telegraph.co.uk,http://amazon.co.uk
Ms,Minne,Chesters,Geotronix Inc,mchesters6@dion.ne.jp,BE,08 Gina Court,6 Autumn Leaf Alley,Buenos Aires,,77889,941-999-3259,253-962-0014,187-997-3471,https://hatena.ne.jp,https://cmu.edu,http://myspace.com,http://bbc.co.uk,http://mail.ru
Mr,Rudy,Cerro,Geotronix Inc,rcerro7@opera.com,US,65915 Derek Hill,2 Esker Park,Buenos Aires,CO,66548,849-615-1050,528-516-6525,264-174-5208,http://jiathis.com,https://reverbnation.com,https://php.net,https://hubpages.com,http://cafepress.com
Ms,Andreas,Taaffe,E Trade Capital Markets,ataaffe8@icq.com,US,31 Lakeland Pass,515 Mosinee Court,San Diego,NC,45423,594-547-6283,530-875-3009,398-712-1098,http://businesswire.com,http://mayoclinic.com,http://dion.ne.jp,http://goo.gl,http://imageshack.us
Ms,Paton,Strattan,Pointe Dance Academy,pstrattan9@reddit.com,US,7380 Toban Way,60 Fremont Terrace,San Diego,VA,33488,444-722-3498,163-979-8665,604-208-8599,https://mysql.com,https://lulu.com,http://oaic.gov.au,http://wordpress.org,http://wsj.com
Ms,Garek,Cejka,Geotronix Inc,gcejkaa@reference.com,RO,393 Armistice Park,74 Karstens Crossing,Kiev,,68899,189-821-6172,380-810-4632,430-635-8757,https://boston.com,https://soundcloud.com,http://ucla.edu,https://networkadvertising.org,https://sourceforge.net
Ms,Lenette,Chaize,Cookies By Design,lchaizeb@google.co.jp,RO,4007 Morningstar Pass,15526 Columbus Road,Bucharest,,65546,607-148-7758,169-857-9174,624-597-6816,http://techcrunch.com,https://mit.edu,http://topsy.com,https://xinhuanet.com,http://unicef.org
Ms,Walton,Yanele,Eagle Homes Inc,wyanelec@ibm.com,FR,62966 Moulton Plaza,18 Shopko Center,Jakarta,,65498,960-916-6288,806-432-4423,469-596-3460,http://list-manage.com,https://ca.gov,https://technorati.com,https://microsoft.com,http://51.la
Mr,Kaine,Dunabie,Customer Solutions,kdunabied@psu.edu,US,191 Florence Place,57 Ridge Oak Lane,Saint Petersburg,TN,45659,924-997-5417,380-711-4705,362-946-1690,http://columbia.edu,https://blogger.com,http://canalblog.com,https://comsenz.com,https://quantcast.com
Mr,Deck,Yate,Customer Solutions,dyatee@51.la,HT,7 Stone Corner Circle,89910 Green Alley,Saint Petersburg,,45789,178-344-1504,716-415-5794,237-283-9040,http://marriott.com,https://joomla.org,http://craigslist.org,http://apache.org,http://angelfire.com
Mr,Gennie,Ruffey,Health Check Systems Inc,gruffeyf@fc2.com,US,01299 Mccormick Trail,062 Forest Run Park,London,CO,12121,267-320-2639,947-988-6252,386-997-7564,https://booking.com,https://utexas.edu,https://umich.edu,https://sina.com.cn,https://eventbrite.com
Ms,Leanna,Dukelow,Health Check Systems Inc,ldukelowg@php.net,US,59256 7th Point,055 Nobel Way,London,TN,32653,548-428-7489,273-421-6793,472-746-4130,https://baidu.com,http://ihg.com,https://epa.gov,https://imgur.com,http://goo.ne.jp
Ms,Lucille,Rush,Health Check Systems Inc,lrushh@barnesandnoble.com,US,7655 Barnett Crossing,565 Forest Run Center,London,NJ,91573,561-642-6032,165-267-1361,729-618-6807,http://moonfruit.com,http://boston.com,https://elpais.com,https://google.com.br,http://yahoo.com
Ms,Kristofor,Madrell,Spectrum Irrigation Conslnt,kmadrelli@google.es,US,77 Graedel Way,682 Huxley Lane,Chicago,NJ,35267,291-227-2372,310-942-3672,988-966-2296,http://dion.ne.jp,https://mail.ru,http://ucsd.edu,https://hugedomains.com,http://noaa.gov
Ms,Mahala,Bleythin,Spectrum Irrigation Conslnt,mbleythinj@japanpost.jp,US,3178 Randy Terrace,53 Sachs Drive,Chicago,NJ,95438,418-927-4687,799-578-7935,480-255-3028,https://jalbum.net,http://bandcamp.com,http://europa.eu,http://pcworld.com,https://delicious.com
,,,,,,,,,,,,,,,,,,
,HELP TEXT,,,,,,,,,,,,,,,,,
,"In the company column if you insert a company name that exists on your site it will be automatically set on the contact. If the company name is not found on your site, on the contact won’t be set any company name.",,,,,,,,,,,,,,,,,
,"The country_code is mandatory, otherwise the address won’t be set on your contact.",,,,,,,,,,,,,,,,,
,The administrative_area is required only for countries that have one.,,,,,,,,,,,,,,,,,
,The name of the sheet must be “contact”.,,,,,,,,,,,,,,,,,
,To use this file for an import test delete this help text. ,,,,,,,,,,,,,,,,,
